<svg width="33" height="33" viewBox="0 0 33 33" fill="none" xmlns="http://www.w3.org/2000/svg">
<path d="M33 16.5C33 25.6127 25.6127 33 16.5 33C7.38728 33 0 25.6127 0 16.5C0 7.38728 7.38728 0 16.5 0C25.6127 0 33 7.38728 33 16.5ZM14.5915 25.2366L26.8334 12.9947C27.2491 12.579 27.2491 11.905 26.8334 11.4893L25.328 9.98383C24.9123 9.56807 24.2382 9.56807 23.8225 9.98383L13.8387 19.9675L9.17753 15.3063C8.76183 14.8907 8.0878 14.8907 7.67203 15.3063L6.16661 16.8118C5.75092 17.2275 5.75092 17.9015 6.16661 18.3172L13.086 25.2366C13.5017 25.6523 14.1757 25.6523 14.5915 25.2366Z" fill="#47E0A0"/>
</svg>
